%YAML 1.1
%TAG !u! tag:unity3d.com,2011:
--- !u!114 &11400000
MonoBehaviour:
  m_ObjectHideFlags: 8
  m_CorrespondingSourceObject: {fileID: 0}
  m_PrefabInstance: {fileID: 0}
  m_PrefabAsset: {fileID: 0}
  m_GameObject: {fileID: 0}
  m_Enabled: 1
  m_EditorHideFlags: 0
  m_Script: {fileID: 11500000, guid: f3d48839205e14f5986b4a276ad82cbb, type: 3}
  m_Name: materiList
  m_EditorClassIdentifier: 
  materi:
  - id: 669eda0e-cf71-4c49-a37f-465d6ff89434
    itemName: "\u3075\u3064\u3046\u306E\u30CF\u30EA"
    fileName: needle_normal
    filePath: Splites/item/needle_normal
    genre: Hari
    description: "\u3044\u305F\u3063\u3066\u666E\u901A\u306E\u30CF\u30EA\u3002\u3082\u306E\u3092\u306A\u304A\u305B\u308B\u3002"
    howToGet: "\u5E03\u306E\u56FD\u306E\u8857\u4E2D\u306B\u3042\u308B\u3001\u30CF\u30EA\u306E\u30A8\u30CD\u30EB\u30AE\u30FC\u3092\u96C6\u3081\u308B"
    land: "\u5E03\u306E\u56FD"
    itemPoint: 5
    sortNumber: 0
  - id: addce0ab-0e48-43db-a571-6f1e470587d9
    itemName: "\u3059\u308B\u3069\u3044\u30CF\u30EA"
    fileName: needle_sharp
    filePath: Splites/item/needle_sharp
    genre: Hari
    description: "\u3088\u308A\u3059\u308B\u3069\u3044\u30CF\u30EA\u3002\u7E2B\u3044\u75D5\u304C\u304D\u308C\u3044\u306B\u306A\u308B\u3002"
    howToGet: "\u30CF\u30EA\u5C4B\u3055\u3093\u3067\u53D6\u308A\u6271\u3063\u3066\u308B\u3002\n\u305F\u307E\u306B\u30CF\u30EA\u306E\u30A8\u30CD\u30EB\u30AE\u30FC\u304B\u3089\u53D6\u308C\u305F\u308A\u3059\u308B"
    land: "\u5E03\u306E\u56FD"
    itemPoint: 10
    sortNumber: 1
  - id: 4fb9fd76-7273-4ec3-86dc-dc8f41a94dca
    itemName: "\u3058\u3087\u3046\u3076\u306A\u30CF\u30EA"
    fileName: needle_strong
    filePath: Splites/item/needle_strong
    genre: Hari
    description: "\u3088\u308A\u3058\u3087\u3046\u3076\u306A\u30CF\u30EA\u3002\u786C\u3044\u3082\u306E\u3092\u306A\u304A\u305B\u308B\u3002"
    howToGet: "\u30CF\u30EA\u5C4B\u3055\u3093\u3067\u53D6\u308A\u6271\u3063\u3066\u308B\u3002"
    land: "\u5E03\u306E\u56FD"
    itemPoint: 15
    sortNumber: 2
  - id: 45a13c3b-d5ca-4ffe-812b-02bde7cd9731
    itemName: "\u3075\u3064\u3046\u306E\u30CC\u30CE"
    fileName: cloth_normal
    filePath: Splites/item/cloth_normal
    genre: Nuno
    description: "\u3044\u305F\u3063\u3066\u666E\u901A\u306E\u30CC\u30CE\u3002\u3082\u306E\u3092\u5305\u3093\u3060\u308A\u3067\u304D\u308B\u3002"
    howToGet: "\u5E03\u306E\u56FD\u306E\u8857\u4E2D\u306B\u3042\u308B\u3001\u30CC\u30CE\u306E\u30A8\u30CD\u30EB\u30AE\u30FC\u3092\u96C6\u3081\u308B"
    land: "\u5E03\u306E\u56FD"
    itemPoint: 5
    sortNumber: 3
  - id: 5a8e1c82-18cf-4e21-b576-4500fca68489
    itemName: "\u3046\u3059\u3067\u306E\u30CC\u30CE"
    fileName: cloth_thin
    filePath: Splites/item/cloth_thin
    genre: Nuno
    description: "\u3075\u3064\u3046\u306E\u3082\u306E\u3088\u308A\u3046\u3059\u3044\u3002\u8EFD\u3084\u304B\u3060\u304C\u3001\u5C11\u3057\u3084\u3076\u308C\u3084\u3059\u3044\u3002"
    howToGet: "\u30CC\u30CE\u5C4B\u3055\u3093\u3067\u53D6\u308A\u6271\u3063\u3066\u308B\u3002\n\u305F\u307E\u306B\u30CC\u30CE\u306E\u30A8\u30CD\u30EB\u30AE\u30FC\u304B\u3089\u53D6\u308C\u305F\u308A\u3059\u308B"
    land: "\u5E03\u306E\u56FD"
    itemPoint: 10
    sortNumber: 4
  - id: 354fa0f1-9b9d-47a8-8daa-b87c38c36308
    itemName: "\u3042\u3064\u3067\u306E\u30CC\u30CE"
    fileName: cloth_thick
    filePath: Splites/item/cloth_thick
    genre: Nuno
    description: "\u3075\u3064\u3046\u306E\u3082\u306E\u3088\u308A\u3042\u3064\u3044\u3002\u4E08\u592B\u3060\u304C\u3001\u5C11\u3057\u304A\u3082\u305F\u3044\u3002"
    howToGet: "\u30CC\u30CE\u5C4B\u3055\u3093\u3067\u53D6\u308A\u6271\u3063\u3066\u308B\u3002"
    land: "\u5E03\u306E\u56FD"
    itemPoint: 15
    sortNumber: 5
  - id: 9b2d4fbc-4614-4a55-af15-e430cd8f1061
    itemName: "\u5E02\u677E\u6A21\u69D8\u306E\u30CC\u30CE"
    fileName: cloth_ichimatsu
    filePath: Splites/item/cloth_ichimatsu
    genre: Nuno
    description: "\u5E02\u677E\u6A21\u69D8\u304C\u3042\u3057\u3089\u308F\u308C\u305F\u30CC\u30CE\u3002\u4E08\u592B\u3060\u3057\u3001\u3061\u3087\u3063\u3068\u98A8\u60C5\u304C\u3042\u308B\u3002"
    howToGet: "\u30CC\u30CE\u5C4B\u3055\u3093\u3067\u53D6\u308A\u6271\u3063\u3066\u308B\u3002"
    land: "\u5E03\u306E\u56FD"
    itemPoint: 50
    sortNumber: 6
  - id: 1d777bb5-27e3-495e-98d7-a8342a2920d5
    itemName: "\u3075\u3064\u3046\u306E\u30EF\u30BF"
    fileName: cotton_normal
    filePath: Splites/item/cotton_normal
    genre: Wata
    description: "\u3044\u305F\u3063\u3066\u666E\u901A\u306E\u30EF\u30BF\u3002\u306C\u3044\u3050\u308B\u307F\u306E\u4E2D\u306B\u8A70\u3081\u308B\u3002"
    howToGet: "\u5E03\u306E\u56FD\u306E\u8857\u4E2D\u306B\u3042\u308B\u3001\u30EF\u30BF\u306E\u30A8\u30CD\u30EB\u30AE\u30FC\u3092\u96C6\u3081\u308B"
    land: "\u5E03\u306E\u56FD"
    itemPoint: 5
    sortNumber: 7
  - id: 3d727a56-ffca-4312-a429-66ff040db818
    itemName: "\u304B\u308B\u3044\u30EF\u30BF"
    fileName: cotton_light
    filePath: Splites/item/cotton_light
    genre: Wata
    description: "\u3075\u3064\u3046\u306E\u3082\u306E\u3088\u308A\u304B\u308B\u3044\u3002\u3075\u308F\u3075\u308F\u98DB\u3073\u3084\u3059\u3044\u3002"
    howToGet: "\u30EF\u30BF\u5C4B\u3055\u3093\u3067\u53D6\u308A\u6271\u3063\u3066\u308B\u3002"
    land: "\u5E03\u306E\u56FD"
    itemPoint: 10
    sortNumber: 8
  - id: e4de8b56-7b83-4811-a476-4e5f98d9cf7c
    itemName: "\u304A\u3082\u3044\u30EF\u30BF"
    fileName: cotton_heavy
    filePath: Splites/item/cotton_heavy
    genre: Wata
    description: "\u3075\u3064\u3046\u306E\u3082\u306E\u3088\u308A\u304A\u3082\u3044\u3002\u5B89\u5B9A\u611F\u304C\u3042\u308B\u3002"
    howToGet: "\u30EF\u30BF\u5C4B\u3055\u3093\u3067\u53D6\u308A\u6271\u3063\u3066\u308B\u3002"
    land: "\u5E03\u306E\u56FD"
    itemPoint: 15
    sortNumber: 9
  - id: 77a5d095-da99-4ba3-bbda-de72f76469f4
    itemName: "\u3075\u3064\u3046\u306E\u30A4\u30C8"
    fileName: thread_normal
    filePath: Splites/item/thread_normal
    genre: Ito
    description: "\u3044\u305F\u3063\u3066\u666E\u901A\u306E\u30A4\u30C8\u3002\u3082\u306E\u3092\u7E2B\u3044\u5408\u308F\u305B\u3089\u308C\u308B\u3002"
    howToGet: "\u5E03\u306E\u56FD\u306E\u8857\u4E2D\u306B\u3042\u308B\u3001\u30A4\u30C8\u306E\u30A8\u30CD\u30EB\u30AE\u30FC\u3092\u96C6\u3081\u308B"
    land: "\u5E03\u306E\u56FD"
    itemPoint: 5
    sortNumber: 10
  - id: 7554eb2e-edcd-4bcb-b5bc-4e6146e4df55
    itemName: "\u307B\u305D\u3044\u30A4\u30C8"
    fileName: thread_thin
    filePath: Splites/item/thread_thin
    genre: Ito
    description: "\u3088\u308A\u307B\u305D\u3044\u30A4\u30C8\u3002\u30AE\u30EA\u30AE\u30EA\u307E\u3067\u8EFD\u304F\u3057\u305F\u3002"
    howToGet: "\u30A4\u30C8\u5C4B\u3055\u3093\u3067\u53D6\u308A\u6271\u3063\u3066\u308B\u3002\n\u305F\u307E\u306B\u30A4\u30C8\u306E\u30A8\u30CD\u30EB\u30AE\u30FC\u304B\u3089\u53D6\u308C\u305F\u308A\u3059\u308B"
    land: "\u5E03\u306E\u56FD"
    itemPoint: 10
    sortNumber: 11
  - id: 90ec0374-ba0f-49c8-9953-4455de1824db
    itemName: "\u3058\u3087\u3046\u3076\u306A\u30A4\u30C8"
    fileName: thread_strong
    filePath: Splites/item/thread_strong
    genre: Ito
    description: "\u3088\u308A\u3058\u3087\u3046\u3076\u306A\u30A4\u30C8\u3002\u9577\u6301\u3061\u3059\u308B\u3002"
    howToGet: "\u30A4\u30C8\u5C4B\u3055\u3093\u3067\u53D6\u308A\u6271\u3063\u3066\u308B\u3002"
    land: "\u5E03\u306E\u56FD"
    itemPoint: 15
    sortNumber: 12
