%YAML 1.1
%TAG !u! tag:unity3d.com,2011:
--- !u!114 &11400000
MonoBehaviour:
  m_ObjectHideFlags: 8
  m_CorrespondingSourceObject: {fileID: 0}
  m_PrefabInstance: {fileID: 0}
  m_PrefabAsset: {fileID: 0}
  m_GameObject: {fileID: 0}
  m_Enabled: 1
  m_EditorHideFlags: 0
  m_Script: {fileID: 11500000, guid: 3de1dd053da944b58a69924e7ecae9b9, type: 3}
  m_Name: naoshiQuestList
  m_EditorClassIdentifier: 
  naoshiQuest:
  - id: 06fe29c1-927e-4af4-a7c9-92977667b4e6
    dollName: "\u30DF\u30A4\u3061\u3083\u3093"
    dollImage: Splites/doll/kazoku-neko/kazoku-neko
    needItem: '-'
    onlyItems: "\u3075\u3064\u3046\u306E\u30CF\u30EA,\u3075\u3064\u3046\u306E\u30A4\u30C8,\u3075\u3064\u3046\u306E\u30CC\u30CE,\u3075\u3064\u3046\u306E\u30EF\u30BF"
    exceptItems: "\u3058\u3087\u3046\u3076\u306A\u30CF\u30EA,\u5E02\u677E\u6A21\u69D8\u306E\u30CC\u30CE"
    numberingItemGenre: "\u30EF\u30BF,\u30CC\u30CE,\u30A4\u30C8,\u30CF\u30EA"
    numberingPoint: 25,25,25,25
    numberingItemName: -,-,-,-
    timeLimit: 30
  - id: 20686c28-afd3-4c86-b78d-744e3eb619e0
    dollName: "\u30C7\u30F3\u30B7\u30E7\u30D0\u30C8"
    dollImage: Splites/doll/densyo-bato/densyo-bato
    needItem: '-'
    onlyItems: "\u3075\u3064\u3046\u306E\u30CF\u30EA,\u3075\u3064\u3046\u306E\u30A4\u30C8,\u3075\u3064\u3046\u306E\u30CC\u30CE,\u3075\u3064\u3046\u306E\u30EF\u30BF"
    exceptItems: "\u3058\u3087\u3046\u3076\u306A\u30CF\u30EA,\u5E02\u677E\u6A21\u69D8\u306E\u30CC\u30CE"
    numberingItemGenre: "\u30CC\u30CE,\u30A4\u30C8,\u30CF\u30EA"
    numberingPoint: 50,30,20
    numberingItemName: -,-,-
    timeLimit: 30
  - id: b464cc4f-7358-4ab4-8e39-05b6909baacd
    dollName: "\u30C6\u30C4\u30C0\u30A4\u30AF\u30DE"
    dollImage: Splites/doll/tetsudai-kuma/tetsudai-kuma
    needItem: "\u3058\u3087\u3046\u3076\u306A\u30CF\u30EA*10,\u5E02\u677E\u6A21\u69D8\u306E\u30CC\u30CE*10"
    onlyItems: "\u3058\u3087\u3046\u3076\u306A\u30CF\u30EA,\u5E02\u677E\u6A21\u69D8\u306E\u30CC\u30CE"
    exceptItems: '-'
    numberingItemGenre: "\u30CC\u30CE,\u30CF\u30EA"
    numberingPoint: 60,40
    numberingItemName: "\u5E02\u677E\u6A21\u69D8\u306E\u30CC\u30CE,\u3058\u3087\u3046\u3076\u306A\u30CF\u30EA"
    timeLimit: 60
