%YAML 1.1
%TAG !u! tag:unity3d.com,2011:
--- !u!114 &11400000
MonoBehaviour:
  m_ObjectHideFlags: 8
  m_CorrespondingSourceObject: {fileID: 0}
  m_PrefabInstance: {fileID: 0}
  m_PrefabAsset: {fileID: 0}
  m_GameObject: {fileID: 0}
  m_Enabled: 1
  m_EditorHideFlags: 0
  m_Script: {fileID: 11500000, guid: a7274c36650c94e038fc1258cfad7982, type: 3}
  m_Name: SubQuestList
  m_EditorClassIdentifier: 
  SubQuest:
  - id: 6c56fd6d-3f05-417d-ba79-940bc1a850a4
    questName: 
    questSubName: 
    genre: 0
    description: 
    howToClear: 
    questcharactorName: 
    questIconFilePath: 
    thankPoint: 0
    thankItems: 
    nextQuestId: 
    playerRank: 0
    storyNo: 0
  - id: 08940a58-38c7-453c-a001-e978a8ffbb0f
    questName: 
    questSubName: 
    genre: 0
    description: 
    howToClear: 
    questcharactorName: 
    questIconFilePath: 
    thankPoint: 0
    thankItems: 
    nextQuestId: 
    playerRank: 0
    storyNo: 0
  - id: e29a19ce-b3c3-4086-a9dd-fe48084d3dfe
    questName: 
    questSubName: 
    genre: 0
    description: 
    howToClear: 
    questcharactorName: 
    questIconFilePath: 
    thankPoint: 0
    thankItems: 
    nextQuestId: 
    playerRank: 0
    storyNo: 0
  - id: abe0db82-fd46-4c77-9657-b1ba6b34ddc9
    questName: 
    questSubName: 
    genre: 0
    description: 
    howToClear: 
    questcharactorName: 
    questIconFilePath: 
    thankPoint: 0
    thankItems: 
    nextQuestId: 
    playerRank: 0
    storyNo: 0
  - id: 6138fe4f-129c-4bc8-9cff-4c50bc9e52bc
    questName: 
    questSubName: 
    genre: 0
    description: 
    howToClear: 
    questcharactorName: 
    questIconFilePath: 
    thankPoint: 0
    thankItems: 
    nextQuestId: 
    playerRank: 0
    storyNo: 0
  - id: 21250480-a3e7-45aa-a846-82cd09a24a7b
    questName: 
    questSubName: 
    genre: 0
    description: 
    howToClear: 
    questcharactorName: 
    questIconFilePath: 
    thankPoint: 0
    thankItems: 
    nextQuestId: 
    playerRank: 0
    storyNo: 0
  - id: 7b228762-e610-4976-8e6f-8faa07276009
    questName: 
    questSubName: 
    genre: 0
    description: 
    howToClear: 
    questcharactorName: 
    questIconFilePath: 
    thankPoint: 0
    thankItems: 
    nextQuestId: 
    playerRank: 0
    storyNo: 0
  - id: c8a1827b-5ac5-439a-98b4-c88b8fa6bb46
    questName: 
    questSubName: 
    genre: 0
    description: 
    howToClear: 
    questcharactorName: 
    questIconFilePath: 
    thankPoint: 0
    thankItems: 
    nextQuestId: 
    playerRank: 0
    storyNo: 0
  - id: 49fa8cea-fec2-409e-b50a-15d84f1b85c3
    questName: 
    questSubName: 
    genre: 0
    description: 
    howToClear: 
    questcharactorName: 
    questIconFilePath: 
    thankPoint: 0
    thankItems: 
    nextQuestId: 
    playerRank: 0
    storyNo: 0
  - id: 760ebf0e-2b7a-4b3e-998d-af50657c2390
    questName: 
    questSubName: 
    genre: 0
    description: 
    howToClear: 
    questcharactorName: 
    questIconFilePath: 
    thankPoint: 0
    thankItems: 
    nextQuestId: 
    playerRank: 0
    storyNo: 0
  - id: 7af2d068-1929-4a78-ad47-258fed62fc75
    questName: 
    questSubName: 
    genre: 0
    description: 
    howToClear: 
    questcharactorName: 
    questIconFilePath: 
    thankPoint: 0
    thankItems: 
    nextQuestId: 
    playerRank: 0
    storyNo: 0
  - id: d8195a63-4325-4d05-a17d-e2b188d17485
    questName: 
    questSubName: 
    genre: 0
    description: 
    howToClear: 
    questcharactorName: 
    questIconFilePath: 
    thankPoint: 0
    thankItems: 
    nextQuestId: 
    playerRank: 0
    storyNo: 0
  - id: 9b239a73-88f1-4d32-86fc-0d5b70ec4733
    questName: 
    questSubName: 
    genre: 0
    description: 
    howToClear: 
    questcharactorName: 
    questIconFilePath: 
    thankPoint: 0
    thankItems: 
    nextQuestId: 
    playerRank: 0
    storyNo: 0
  - id: ebc088ac-f77e-463f-ae3c-b5f277739701
    questName: 
    questSubName: 
    genre: 0
    description: 
    howToClear: 
    questcharactorName: 
    questIconFilePath: 
    thankPoint: 0
    thankItems: 
    nextQuestId: 
    playerRank: 0
    storyNo: 0
  - id: 8a7a1516-5adb-4244-b001-5c403863b43e
    questName: 
    questSubName: 
    genre: 0
    description: 
    howToClear: 
    questcharactorName: 
    questIconFilePath: 
    thankPoint: 0
    thankItems: 
    nextQuestId: 
    playerRank: 0
    storyNo: 0
  - id: 98ab391c-84fb-463b-9af6-a3a3bc9b2d08
    questName: 
    questSubName: 
    genre: 0
    description: 
    howToClear: 
    questcharactorName: 
    questIconFilePath: 
    thankPoint: 0
    thankItems: 
    nextQuestId: 
    playerRank: 0
    storyNo: 0
  - id: f561c52e-140f-4770-a391-91d37bcdf6ec
    questName: 
    questSubName: 
    genre: 0
    description: 
    howToClear: 
    questcharactorName: 
    questIconFilePath: 
    thankPoint: 0
    thankItems: 
    nextQuestId: 
    playerRank: 0
    storyNo: 0
  - id: a0a2f79b-fa5d-4892-8b85-0fe2bf630972
    questName: 
    questSubName: 
    genre: 0
    description: 
    howToClear: 
    questcharactorName: 
    questIconFilePath: 
    thankPoint: 0
    thankItems: 
    nextQuestId: 
    playerRank: 0
    storyNo: 0
  - id: 6465047c-f78b-4d7c-a57c-de46a8e6d387
    questName: 
    questSubName: 
    genre: 0
    description: 
    howToClear: 
    questcharactorName: 
    questIconFilePath: 
    thankPoint: 0
    thankItems: 
    nextQuestId: 
    playerRank: 0
    storyNo: 0
  - id: 640165d4-5d88-4a76-a9c5-94659f621b54
    questName: 
    questSubName: 
    genre: 0
    description: 
    howToClear: 
    questcharactorName: 
    questIconFilePath: 
    thankPoint: 0
    thankItems: 
    nextQuestId: 
    playerRank: 0
    storyNo: 0
  - id: 4e1f7ad8-d458-43a8-beed-2421b912c7af
    questName: 
    questSubName: 
    genre: 0
    description: 
    howToClear: 
    questcharactorName: 
    questIconFilePath: 
    thankPoint: 0
    thankItems: 
    nextQuestId: 
    playerRank: 0
    storyNo: 0
  - id: 2c3eb023-0937-4bf8-be53-df61beee8a5c
    questName: 
    questSubName: 
    genre: 0
    description: 
    howToClear: 
    questcharactorName: 
    questIconFilePath: 
    thankPoint: 0
    thankItems: 
    nextQuestId: 
    playerRank: 0
    storyNo: 0
  - id: a997aed0-b289-4bd2-a074-ee823649f274
    questName: 
    questSubName: 
    genre: 0
    description: 
    howToClear: 
    questcharactorName: 
    questIconFilePath: 
    thankPoint: 0
    thankItems: 
    nextQuestId: 
    playerRank: 0
    storyNo: 0
  - id: f58bb9db-8177-4d95-8600-b343bd4ae3bd
    questName: 
    questSubName: 
    genre: 0
    description: 
    howToClear: 
    questcharactorName: 
    questIconFilePath: 
    thankPoint: 0
    thankItems: 
    nextQuestId: 
    playerRank: 0
    storyNo: 0
  - id: 91f0b038-ac2a-452f-87dc-80b2c699b7fb
    questName: 
    questSubName: 
    genre: 0
    description: 
    howToClear: 
    questcharactorName: 
    questIconFilePath: 
    thankPoint: 0
    thankItems: 
    nextQuestId: 
    playerRank: 0
    storyNo: 0
  - id: da83cd89-7f44-4ba4-9ba6-0047c7b5f762
    questName: 
    questSubName: 
    genre: 0
    description: 
    howToClear: 
    questcharactorName: 
    questIconFilePath: 
    thankPoint: 0
    thankItems: 
    nextQuestId: 
    playerRank: 0
    storyNo: 0
  - id: 25e04d04-b521-410b-9e50-0460fb22f15d
    questName: 
    questSubName: 
    genre: 0
    description: 
    howToClear: 
    questcharactorName: 
    questIconFilePath: 
    thankPoint: 0
    thankItems: 
    nextQuestId: 
    playerRank: 0
    storyNo: 0
  - id: bcc8d5be-f465-45b9-a8cd-1dea758b65ad
    questName: 
    questSubName: 
    genre: 0
    description: 
    howToClear: 
    questcharactorName: 
    questIconFilePath: 
    thankPoint: 0
    thankItems: 
    nextQuestId: 
    playerRank: 0
    storyNo: 0
  - id: 69f2fe13-c25e-43e2-a513-e147f34055f9
    questName: 
    questSubName: 
    genre: 0
    description: 
    howToClear: 
    questcharactorName: 
    questIconFilePath: 
    thankPoint: 0
    thankItems: 
    nextQuestId: 
    playerRank: 0
    storyNo: 0
  - id: 4751bb0c-a30b-4cc4-9640-e2b15edeeb04
    questName: 
    questSubName: 
    genre: 0
    description: 
    howToClear: 
    questcharactorName: 
    questIconFilePath: 
    thankPoint: 0
    thankItems: 
    nextQuestId: 
    playerRank: 0
    storyNo: 0
  - id: 43ea2d20-09f4-4ed7-927b-2f4313242ac5
    questName: 
    questSubName: 
    genre: 0
    description: 
    howToClear: 
    questcharactorName: 
    questIconFilePath: 
    thankPoint: 0
    thankItems: 
    nextQuestId: 
    playerRank: 0
    storyNo: 0
  - id: 5e17222c-9172-4b45-9142-52132de0af18
    questName: 
    questSubName: 
    genre: 0
    description: 
    howToClear: 
    questcharactorName: 
    questIconFilePath: 
    thankPoint: 0
    thankItems: 
    nextQuestId: 
    playerRank: 0
    storyNo: 0
  - id: bcb00fad-17a9-4985-b44a-017acec3180a
    questName: 
    questSubName: 
    genre: 0
    description: 
    howToClear: 
    questcharactorName: 
    questIconFilePath: 
    thankPoint: 0
    thankItems: 
    nextQuestId: 
    playerRank: 0
    storyNo: 0
  - id: 5f68d88d-38f0-49a1-8cbe-db7db1a2a32f
    questName: 
    questSubName: 
    genre: 0
    description: 
    howToClear: 
    questcharactorName: 
    questIconFilePath: 
    thankPoint: 0
    thankItems: 
    nextQuestId: 
    playerRank: 0
    storyNo: 0
  - id: adb4b053-49ee-4ce8-846a-3ba1bbf8fc36
    questName: 
    questSubName: 
    genre: 0
    description: 
    howToClear: 
    questcharactorName: 
    questIconFilePath: 
    thankPoint: 0
    thankItems: 
    nextQuestId: 
    playerRank: 0
    storyNo: 0
  - id: 30722014-a4d0-495f-a080-8006e0afef79
    questName: 
    questSubName: 
    genre: 0
    description: 
    howToClear: 
    questcharactorName: 
    questIconFilePath: 
    thankPoint: 0
    thankItems: 
    nextQuestId: 
    playerRank: 0
    storyNo: 0
  - id: f6f79d75-3251-44f8-8851-85f1d8aa6525
    questName: 
    questSubName: 
    genre: 0
    description: 
    howToClear: 
    questcharactorName: 
    questIconFilePath: 
    thankPoint: 0
    thankItems: 
    nextQuestId: 
    playerRank: 0
    storyNo: 0
  - id: 0fbd7f08-0139-492c-8258-230517b425fa
    questName: 
    questSubName: 
    genre: 0
    description: 
    howToClear: 
    questcharactorName: 
    questIconFilePath: 
    thankPoint: 0
    thankItems: 
    nextQuestId: 
    playerRank: 0
    storyNo: 0
  - id: 4903ea1b-931c-4ee0-b38a-c9b992193aa9
    questName: 
    questSubName: 
    genre: 0
    description: 
    howToClear: 
    questcharactorName: 
    questIconFilePath: 
    thankPoint: 0
    thankItems: 
    nextQuestId: 
    playerRank: 0
    storyNo: 0
  - id: d74f37c7-7cda-4bf4-86c9-af68728b0ae7
    questName: 
    questSubName: 
    genre: 0
    description: 
    howToClear: 
    questcharactorName: 
    questIconFilePath: 
    thankPoint: 0
    thankItems: 
    nextQuestId: 
    playerRank: 0
    storyNo: 0
  - id: eb25213b-5d24-4cc5-922c-9e679cdd9023
    questName: 
    questSubName: 
    genre: 0
    description: 
    howToClear: 
    questcharactorName: 
    questIconFilePath: 
    thankPoint: 0
    thankItems: 
    nextQuestId: 
    playerRank: 0
    storyNo: 0
  - id: 38b3d89f-67ff-4fd8-9788-0593b1264057
    questName: 
    questSubName: 
    genre: 0
    description: 
    howToClear: 
    questcharactorName: 
    questIconFilePath: 
    thankPoint: 0
    thankItems: 
    nextQuestId: 
    playerRank: 0
    storyNo: 0
  - id: 5caee709-9785-4bb0-b553-2eda86b9ea1f
    questName: 
    questSubName: 
    genre: 0
    description: 
    howToClear: 
    questcharactorName: 
    questIconFilePath: 
    thankPoint: 0
    thankItems: 
    nextQuestId: 
    playerRank: 0
    storyNo: 0
  - id: 92f1ea79-624f-43dc-9b9f-38089b9cac9a
    questName: 
    questSubName: 
    genre: 0
    description: 
    howToClear: 
    questcharactorName: 
    questIconFilePath: 
    thankPoint: 0
    thankItems: 
    nextQuestId: 
    playerRank: 0
    storyNo: 0
  - id: d854d195-2132-4b96-b9ce-b781ab70be1b
    questName: 
    questSubName: 
    genre: 0
    description: 
    howToClear: 
    questcharactorName: 
    questIconFilePath: 
    thankPoint: 0
    thankItems: 
    nextQuestId: 
    playerRank: 0
    storyNo: 0
  - id: 089beae8-f24b-4c38-a38d-a00cf525f22b
    questName: 
    questSubName: 
    genre: 0
    description: 
    howToClear: 
    questcharactorName: 
    questIconFilePath: 
    thankPoint: 0
    thankItems: 
    nextQuestId: 
    playerRank: 0
    storyNo: 0
  - id: 4c962dfc-9667-4749-8048-038913579886
    questName: 
    questSubName: 
    genre: 0
    description: 
    howToClear: 
    questcharactorName: 
    questIconFilePath: 
    thankPoint: 0
    thankItems: 
    nextQuestId: 
    playerRank: 0
    storyNo: 0
  - id: eca3c5c9-3d59-456d-9470-2d2222b12444
    questName: 
    questSubName: 
    genre: 0
    description: 
    howToClear: 
    questcharactorName: 
    questIconFilePath: 
    thankPoint: 0
    thankItems: 
    nextQuestId: 
    playerRank: 0
    storyNo: 0
  - id: 33d27e55-c50d-4d36-81f6-7eaf5f28ab1f
    questName: 
    questSubName: 
    genre: 0
    description: 
    howToClear: 
    questcharactorName: 
    questIconFilePath: 
    thankPoint: 0
    thankItems: 
    nextQuestId: 
    playerRank: 0
    storyNo: 0
  - id: f974523b-b686-42e2-ac48-e9a38ad84a86
    questName: 
    questSubName: 
    genre: 0
    description: 
    howToClear: 
    questcharactorName: 
    questIconFilePath: 
    thankPoint: 0
    thankItems: 
    nextQuestId: 
    playerRank: 0
    storyNo: 0
  - id: 9b59cf7b-08d7-4339-b91d-dcf810cac8c4
    questName: 
    questSubName: 
    genre: 0
    description: 
    howToClear: 
    questcharactorName: 
    questIconFilePath: 
    thankPoint: 0
    thankItems: 
    nextQuestId: 
    playerRank: 0
    storyNo: 0
  - id: 37fd8dfd-b3d1-4fbd-b4bf-acf355879a79
    questName: 
    questSubName: 
    genre: 0
    description: 
    howToClear: 
    questcharactorName: 
    questIconFilePath: 
    thankPoint: 0
    thankItems: 
    nextQuestId: 
    playerRank: 0
    storyNo: 0
  - id: 2245bff9-d917-4508-8f1a-4b6757364589
    questName: 
    questSubName: 
    genre: 0
    description: 
    howToClear: 
    questcharactorName: 
    questIconFilePath: 
    thankPoint: 0
    thankItems: 
    nextQuestId: 
    playerRank: 0
    storyNo: 0
  - id: bdc3d69d-e488-4657-9ce8-daf55d3f6d82
    questName: 
    questSubName: 
    genre: 0
    description: 
    howToClear: 
    questcharactorName: 
    questIconFilePath: 
    thankPoint: 0
    thankItems: 
    nextQuestId: 
    playerRank: 0
    storyNo: 0
  - id: 344136e0-1129-4596-b8f4-0fe3fdea3146
    questName: 
    questSubName: 
    genre: 0
    description: 
    howToClear: 
    questcharactorName: 
    questIconFilePath: 
    thankPoint: 0
    thankItems: 
    nextQuestId: 
    playerRank: 0
    storyNo: 0
  - id: a9146c57-4e9f-4751-9973-fd962cc78666
    questName: 
    questSubName: 
    genre: 0
    description: 
    howToClear: 
    questcharactorName: 
    questIconFilePath: 
    thankPoint: 0
    thankItems: 
    nextQuestId: 
    playerRank: 0
    storyNo: 0
  - id: 4b031bc1-fe60-4b36-8d62-08cad8def3a4
    questName: 
    questSubName: 
    genre: 0
    description: 
    howToClear: 
    questcharactorName: 
    questIconFilePath: 
    thankPoint: 0
    thankItems: 
    nextQuestId: 
    playerRank: 0
    storyNo: 0
  - id: 96aad351-8b7c-4332-af57-8f2181617938
    questName: 
    questSubName: 
    genre: 0
    description: 
    howToClear: 
    questcharactorName: 
    questIconFilePath: 
    thankPoint: 0
    thankItems: 
    nextQuestId: 
    playerRank: 0
    storyNo: 0
  - id: 06d6d664-1e31-46d6-b394-05b69463219f
    questName: 
    questSubName: 
    genre: 0
    description: 
    howToClear: 
    questcharactorName: 
    questIconFilePath: 
    thankPoint: 0
    thankItems: 
    nextQuestId: 
    playerRank: 0
    storyNo: 0
  - id: a8dcc1e2-6a79-4a97-a2af-e74460485b07
    questName: 
    questSubName: 
    genre: 0
    description: 
    howToClear: 
    questcharactorName: 
    questIconFilePath: 
    thankPoint: 0
    thankItems: 
    nextQuestId: 
    playerRank: 0
    storyNo: 0
  - id: 375ac132-3f08-4a09-b85d-f71b18678748
    questName: 
    questSubName: 
    genre: 0
    description: 
    howToClear: 
    questcharactorName: 
    questIconFilePath: 
    thankPoint: 0
    thankItems: 
    nextQuestId: 
    playerRank: 0
    storyNo: 0
  - id: a4281df3-4b2e-486a-b667-b80d1e481f76
    questName: 
    questSubName: 
    genre: 0
    description: 
    howToClear: 
    questcharactorName: 
    questIconFilePath: 
    thankPoint: 0
    thankItems: 
    nextQuestId: 
    playerRank: 0
    storyNo: 0
  - id: f6f39b83-032c-4b0d-aaa1-314e5f387934
    questName: 
    questSubName: 
    genre: 0
    description: 
    howToClear: 
    questcharactorName: 
    questIconFilePath: 
    thankPoint: 0
    thankItems: 
    nextQuestId: 
    playerRank: 0
    storyNo: 0
  - id: f5d3509e-c958-4d09-8f2a-b54b7e448405
    questName: 
    questSubName: 
    genre: 0
    description: 
    howToClear: 
    questcharactorName: 
    questIconFilePath: 
    thankPoint: 0
    thankItems: 
    nextQuestId: 
    playerRank: 0
    storyNo: 0
  - id: a3ae0579-df35-4651-b159-9ce68bc65f82
    questName: 
    questSubName: 
    genre: 0
    description: 
    howToClear: 
    questcharactorName: 
    questIconFilePath: 
    thankPoint: 0
    thankItems: 
    nextQuestId: 
    playerRank: 0
    storyNo: 0
  - id: 30c51207-dad7-4f14-b10c-8386843370c8
    questName: 
    questSubName: 
    genre: 0
    description: 
    howToClear: 
    questcharactorName: 
    questIconFilePath: 
    thankPoint: 0
    thankItems: 
    nextQuestId: 
    playerRank: 0
    storyNo: 0
  - id: 6ab9c3cd-b1d6-43de-9a39-8e16a05fa49e
    questName: 
    questSubName: 
    genre: 0
    description: 
    howToClear: 
    questcharactorName: 
    questIconFilePath: 
    thankPoint: 0
    thankItems: 
    nextQuestId: 
    playerRank: 0
    storyNo: 0
  - id: 4a7f4f4a-f6f0-45db-9e27-507bbcf58b09
    questName: 
    questSubName: 
    genre: 0
    description: 
    howToClear: 
    questcharactorName: 
    questIconFilePath: 
    thankPoint: 0
    thankItems: 
    nextQuestId: 
    playerRank: 0
    storyNo: 0
  - id: 85a7ee91-8e3f-40eb-ab71-face823f53ee
    questName: 
    questSubName: 
    genre: 0
    description: 
    howToClear: 
    questcharactorName: 
    questIconFilePath: 
    thankPoint: 0
    thankItems: 
    nextQuestId: 
    playerRank: 0
    storyNo: 0
  - id: b7c7dbdb-fca8-44ab-9823-e0418b6a20cf
    questName: 
    questSubName: 
    genre: 0
    description: 
    howToClear: 
    questcharactorName: 
    questIconFilePath: 
    thankPoint: 0
    thankItems: 
    nextQuestId: 
    playerRank: 0
    storyNo: 0
  - id: dce1cd97-ef64-4880-ad93-c235832f311d
    questName: 
    questSubName: 
    genre: 0
    description: 
    howToClear: 
    questcharactorName: 
    questIconFilePath: 
    thankPoint: 0
    thankItems: 
    nextQuestId: 
    playerRank: 0
    storyNo: 0
  - id: d39cecf9-0059-4e3a-921b-685127f36c77
    questName: 
    questSubName: 
    genre: 0
    description: 
    howToClear: 
    questcharactorName: 
    questIconFilePath: 
    thankPoint: 0
    thankItems: 
    nextQuestId: 
    playerRank: 0
    storyNo: 0
  - id: 70714b94-9ea7-4390-a07d-15aba7d1a71e
    questName: 
    questSubName: 
    genre: 0
    description: 
    howToClear: 
    questcharactorName: 
    questIconFilePath: 
    thankPoint: 0
    thankItems: 
    nextQuestId: 
    playerRank: 0
    storyNo: 0
  - id: 5189aa59-6e52-4d3b-a034-1882a4a8748c
    questName: 
    questSubName: 
    genre: 0
    description: 
    howToClear: 
    questcharactorName: 
    questIconFilePath: 
    thankPoint: 0
    thankItems: 
    nextQuestId: 
    playerRank: 0
    storyNo: 0
  - id: 85dc2d7e-847e-4314-915c-2366b3dec6f9
    questName: 
    questSubName: 
    genre: 0
    description: 
    howToClear: 
    questcharactorName: 
    questIconFilePath: 
    thankPoint: 0
    thankItems: 
    nextQuestId: 
    playerRank: 0
    storyNo: 0
  - id: 0f246497-b36d-47be-90e6-bbf736218658
    questName: 
    questSubName: 
    genre: 0
    description: 
    howToClear: 
    questcharactorName: 
    questIconFilePath: 
    thankPoint: 0
    thankItems: 
    nextQuestId: 
    playerRank: 0
    storyNo: 0
  - id: ad2650cc-38bf-4e71-afbb-d5c54afc49e9
    questName: 
    questSubName: 
    genre: 0
    description: 
    howToClear: 
    questcharactorName: 
    questIconFilePath: 
    thankPoint: 0
    thankItems: 
    nextQuestId: 
    playerRank: 0
    storyNo: 0
  - id: f31bfeff-1e40-40aa-bbf7-1b650defd3be
    questName: 
    questSubName: 
    genre: 0
    description: 
    howToClear: 
    questcharactorName: 
    questIconFilePath: 
    thankPoint: 0
    thankItems: 
    nextQuestId: 
    playerRank: 0
    storyNo: 0
  - id: 5dc0d016-e954-4cb4-b526-82c371304cb6
    questName: 
    questSubName: 
    genre: 0
    description: 
    howToClear: 
    questcharactorName: 
    questIconFilePath: 
    thankPoint: 0
    thankItems: 
    nextQuestId: 
    playerRank: 0
    storyNo: 0
  - id: 59cf7025-9e19-4711-9d42-59007a2c44d4
    questName: 
    questSubName: 
    genre: 0
    description: 
    howToClear: 
    questcharactorName: 
    questIconFilePath: 
    thankPoint: 0
    thankItems: 
    nextQuestId: 
    playerRank: 0
    storyNo: 0
  - id: 23f1c712-bd8f-4de7-b63b-be02ef57087e
    questName: 
    questSubName: 
    genre: 0
    description: 
    howToClear: 
    questcharactorName: 
    questIconFilePath: 
    thankPoint: 0
    thankItems: 
    nextQuestId: 
    playerRank: 0
    storyNo: 0
  - id: 7953c09d-c2a9-4193-ac62-efba07a35d00
    questName: 
    questSubName: 
    genre: 0
    description: 
    howToClear: 
    questcharactorName: 
    questIconFilePath: 
    thankPoint: 0
    thankItems: 
    nextQuestId: 
    playerRank: 0
    storyNo: 0
  - id: 722e4fe9-96fa-402a-92f7-1ea1ec6bc7a1
    questName: 
    questSubName: 
    genre: 0
    description: 
    howToClear: 
    questcharactorName: 
    questIconFilePath: 
    thankPoint: 0
    thankItems: 
    nextQuestId: 
    playerRank: 0
    storyNo: 0
  - id: d2286a93-739e-473d-bb8c-40332a3062a1
    questName: 
    questSubName: 
    genre: 0
    description: 
    howToClear: 
    questcharactorName: 
    questIconFilePath: 
    thankPoint: 0
    thankItems: 
    nextQuestId: 
    playerRank: 0
    storyNo: 0
  - id: f5e85495-0a72-43a7-8d40-a320cb876334
    questName: 
    questSubName: 
    genre: 0
    description: 
    howToClear: 
    questcharactorName: 
    questIconFilePath: 
    thankPoint: 0
    thankItems: 
    nextQuestId: 
    playerRank: 0
    storyNo: 0
  - id: 79c8e026-5775-4d21-bc25-36671326bebc
    questName: 
    questSubName: 
    genre: 0
    description: 
    howToClear: 
    questcharactorName: 
    questIconFilePath: 
    thankPoint: 0
    thankItems: 
    nextQuestId: 
    playerRank: 0
    storyNo: 0
  - id: 8093bec3-ebbc-4e76-8ff0-287d8999c448
    questName: 
    questSubName: 
    genre: 0
    description: 
    howToClear: 
    questcharactorName: 
    questIconFilePath: 
    thankPoint: 0
    thankItems: 
    nextQuestId: 
    playerRank: 0
    storyNo: 0
  - id: 6b26de51-2050-45b2-b6cd-870bedd9113e
    questName: 
    questSubName: 
    genre: 0
    description: 
    howToClear: 
    questcharactorName: 
    questIconFilePath: 
    thankPoint: 0
    thankItems: 
    nextQuestId: 
    playerRank: 0
    storyNo: 0
  - id: 93829fcd-0f7b-4cbc-a9cb-321921abea55
    questName: 
    questSubName: 
    genre: 0
    description: 
    howToClear: 
    questcharactorName: 
    questIconFilePath: 
    thankPoint: 0
    thankItems: 
    nextQuestId: 
    playerRank: 0
    storyNo: 0
  - id: 9ae71806-cb1d-483a-8bbd-34a62d5572c9
    questName: 
    questSubName: 
    genre: 0
    description: 
    howToClear: 
    questcharactorName: 
    questIconFilePath: 
    thankPoint: 0
    thankItems: 
    nextQuestId: 
    playerRank: 0
    storyNo: 0
  - id: a3c0e325-d535-4bfb-8ed8-85d1b9967b2d
    questName: 
    questSubName: 
    genre: 0
    description: 
    howToClear: 
    questcharactorName: 
    questIconFilePath: 
    thankPoint: 0
    thankItems: 
    nextQuestId: 
    playerRank: 0
    storyNo: 0
  - id: 70d3a5a8-9e51-4164-8cdb-f6045e7405f3
    questName: 
    questSubName: 
    genre: 0
    description: 
    howToClear: 
    questcharactorName: 
    questIconFilePath: 
    thankPoint: 0
    thankItems: 
    nextQuestId: 
    playerRank: 0
    storyNo: 0
  - id: 32baa571-39d2-415a-b3bc-06072166ccae
    questName: 
    questSubName: 
    genre: 0
    description: 
    howToClear: 
    questcharactorName: 
    questIconFilePath: 
    thankPoint: 0
    thankItems: 
    nextQuestId: 
    playerRank: 0
    storyNo: 0
  - id: 3cdaba29-e025-4116-b292-9b74e6f24e6a
    questName: 
    questSubName: 
    genre: 0
    description: 
    howToClear: 
    questcharactorName: 
    questIconFilePath: 
    thankPoint: 0
    thankItems: 
    nextQuestId: 
    playerRank: 0
    storyNo: 0
  - id: e075ae23-ba39-4d58-97a0-f38a2af8f256
    questName: 
    questSubName: 
    genre: 0
    description: 
    howToClear: 
    questcharactorName: 
    questIconFilePath: 
    thankPoint: 0
    thankItems: 
    nextQuestId: 
    playerRank: 0
    storyNo: 0
  - id: 8ae0dfcd-c981-4b14-821a-37cbf0d87a0e
    questName: 
    questSubName: 
    genre: 0
    description: 
    howToClear: 
    questcharactorName: 
    questIconFilePath: 
    thankPoint: 0
    thankItems: 
    nextQuestId: 
    playerRank: 0
    storyNo: 0
  - id: 116cb86a-3b28-4e5c-a332-c194edfe02d1
    questName: 
    questSubName: 
    genre: 0
    description: 
    howToClear: 
    questcharactorName: 
    questIconFilePath: 
    thankPoint: 0
    thankItems: 
    nextQuestId: 
    playerRank: 0
    storyNo: 0
  - id: 36634624-fc83-4e0d-bb19-1be9ea8346be
    questName: 
    questSubName: 
    genre: 0
    description: 
    howToClear: 
    questcharactorName: 
    questIconFilePath: 
    thankPoint: 0
    thankItems: 
    nextQuestId: 
    playerRank: 0
    storyNo: 0
  - id: 24a7a657-c779-4046-a6b3-6b87419c201a
    questName: 
    questSubName: 
    genre: 0
    description: 
    howToClear: 
    questcharactorName: 
    questIconFilePath: 
    thankPoint: 0
    thankItems: 
    nextQuestId: 
    playerRank: 0
    storyNo: 0
  - id: 74f247cd-e207-4922-8850-6ca2f70cf9bb
    questName: 
    questSubName: 
    genre: 0
    description: 
    howToClear: 
    questcharactorName: 
    questIconFilePath: 
    thankPoint: 0
    thankItems: 
    nextQuestId: 
    playerRank: 0
    storyNo: 0
