%YAML 1.1
%TAG !u! tag:unity3d.com,2011:
--- !u!319 &31900000
AvatarMask:
  m_ObjectHideFlags: 0
  m_CorrespondingSourceObject: {fileID: 0}
  m_PrefabInternal: {fileID: 0}
  m_Name: HairMask
  m_Mask: 01000000010000000100000001000000010000000100000001000000010000000100000001000000010000000100000001000000
  m_Elements:
  - m_Path: 
    m_Weight: 1
  - m_Path: Costume
    m_Weight: 0
  - m_Path: Eyes
    m_Weight: 0
  - m_Path: Hair
    m_Weight: 0
  - m_Path: Head
    m_Weight: 0
  - m_Path: rig
    m_Weight: 0
  - m_Path: rig/root
    m_Weight: 0
  - m_Path: rig/root/ORG-hips
    m_Weight: 0
  - m_Path: rig/root/ORG-hips/ORG-crotch_L
    m_Weight: 0
  - m_Path: rig/root/ORG-hips/ORG-crotch_R
    m_Weight: 0
  - m_Path: rig/root/ORG-hips/ORG-hip_L
    m_Weight: 0
  - m_Path: rig/root/ORG-hips/ORG-hip_R
    m_Weight: 0
  - m_Path: rig/root/ORG-hips/ORG-Iliac_L
    m_Weight: 0
  - m_Path: rig/root/ORG-hips/ORG-Iliac_R
    m_Weight: 0
  - m_Path: rig/root/ORG-hips/ORG-spine
    m_Weight: 0
  - m_Path: rig/root/ORG-hips/ORG-spine/ORG-chest
    m_Weight: 0
  - m_Path: rig/root/ORG-hips/ORG-spine/ORG-chest/ORG-breast_L
    m_Weight: 0
  - m_Path: rig/root/ORG-hips/ORG-spine/ORG-chest/ORG-breast_R
    m_Weight: 0
  - m_Path: rig/root/ORG-hips/ORG-spine/ORG-chest/ORG-mant
    m_Weight: 0
  - m_Path: rig/root/ORG-hips/ORG-spine/ORG-chest/ORG-mant/ORG-mant_back_L
    m_Weight: 0
  - m_Path: rig/root/ORG-hips/ORG-spine/ORG-chest/ORG-mant/ORG-mant_back_L/ORG-mant_back_L_001
    m_Weight: 0
  - m_Path: rig/root/ORG-hips/ORG-spine/ORG-chest/ORG-mant/ORG-mant_back_L/ORG-mant_back_L_001/ORG-mant_back_L_002
    m_Weight: 0
  - m_Path: rig/root/ORG-hips/ORG-spine/ORG-chest/ORG-mant/ORG-mant_back_R
    m_Weight: 0
  - m_Path: rig/root/ORG-hips/ORG-spine/ORG-chest/ORG-mant/ORG-mant_back_R/ORG-mant_back_R_001
    m_Weight: 0
  - m_Path: rig/root/ORG-hips/ORG-spine/ORG-chest/ORG-mant/ORG-mant_back_R/ORG-mant_back_R_001/ORG-mant_back_R_002
    m_Weight: 0
  - m_Path: rig/root/ORG-hips/ORG-spine/ORG-chest/ORG-mant/ORG-mant_front_L
    m_Weight: 0
  - m_Path: rig/root/ORG-hips/ORG-spine/ORG-chest/ORG-mant/ORG-mant_front_L/ORG-mant_front_L_001
    m_Weight: 0
  - m_Path: rig/root/ORG-hips/ORG-spine/ORG-chest/ORG-mant/ORG-mant_front_R
    m_Weight: 0
  - m_Path: rig/root/ORG-hips/ORG-spine/ORG-chest/ORG-mant/ORG-mant_front_R/ORG-mant_front_R_001
    m_Weight: 0
  - m_Path: rig/root/ORG-hips/ORG-spine/ORG-chest/ORG-mant/ORG-mant_side_L
    m_Weight: 0
  - m_Path: rig/root/ORG-hips/ORG-spine/ORG-chest/ORG-mant/ORG-mant_side_L/ORG-mant_side_L_001
    m_Weight: 0
  - m_Path: rig/root/ORG-hips/ORG-spine/ORG-chest/ORG-mant/ORG-mant_side_L/ORG-mant_side_L_001/ORG-mant_side_L_002
    m_Weight: 0
  - m_Path: rig/root/ORG-hips/ORG-spine/ORG-chest/ORG-mant/ORG-mant_side_R
    m_Weight: 0
  - m_Path: rig/root/ORG-hips/ORG-spine/ORG-chest/ORG-mant/ORG-mant_side_R/ORG-mant_side_R_001
    m_Weight: 0
  - m_Path: rig/root/ORG-hips/ORG-spine/ORG-chest/ORG-mant/ORG-mant_side_R/ORG-mant_side_R_001/ORG-mant_side_R_002
    m_Weight: 0
  - m_Path: rig/root/ORG-hips/ORG-spine/ORG-chest/ORG-neck
    m_Weight: 0
  - m_Path: rig/root/ORG-hips/ORG-spine/ORG-chest/ORG-neck/ORG-head
    m_Weight: 0
  - m_Path: rig/root/ORG-hips/ORG-spine/ORG-chest/ORG-neck/ORG-head/ORG-eye_L
    m_Weight: 0
  - m_Path: rig/root/ORG-hips/ORG-spine/ORG-chest/ORG-neck/ORG-head/ORG-eye_R
    m_Weight: 0
  - m_Path: rig/root/ORG-hips/ORG-spine/ORG-chest/ORG-neck/ORG-head/ORG-hair_1
    m_Weight: 1
  - m_Path: rig/root/ORG-hips/ORG-spine/ORG-chest/ORG-neck/ORG-head/ORG-hair_1/ORG-hair_1_001
    m_Weight: 1
  - m_Path: rig/root/ORG-hips/ORG-spine/ORG-chest/ORG-neck/ORG-head/ORG-hair_1/ORG-hair_1_001/ORG-hair_1_002
    m_Weight: 1
  - m_Path: rig/root/ORG-hips/ORG-spine/ORG-chest/ORG-neck/ORG-head/ORG-hair_2
    m_Weight: 1
  - m_Path: rig/root/ORG-hips/ORG-spine/ORG-chest/ORG-neck/ORG-head/ORG-hair_2/ORG-hair_2_001
    m_Weight: 1
  - m_Path: rig/root/ORG-hips/ORG-spine/ORG-chest/ORG-neck/ORG-head/ORG-hair_2/ORG-hair_2_001/ORG-hair_2_002
    m_Weight: 1
  - m_Path: rig/root/ORG-hips/ORG-spine/ORG-chest/ORG-neck/ORG-head/ORG-hair_2/ORG-hair_2_001/ORG-hair_2_002/ORG-hair_2_003
    m_Weight: 1
  - m_Path: rig/root/ORG-hips/ORG-spine/ORG-chest/ORG-neck/ORG-head/ORG-hair_3
    m_Weight: 1
  - m_Path: rig/root/ORG-hips/ORG-spine/ORG-chest/ORG-neck/ORG-head/ORG-hair_3/ORG-hair_3_001
    m_Weight: 1
  - m_Path: rig/root/ORG-hips/ORG-spine/ORG-chest/ORG-neck/ORG-head/ORG-hair_3/ORG-hair_3_001/ORG-hair_3_002
    m_Weight: 1
  - m_Path: rig/root/ORG-hips/ORG-spine/ORG-chest/ORG-neck/ORG-head/ORG-hair_3/ORG-hair_3_001/ORG-hair_3_002/ORG-hair_3_003
    m_Weight: 1
  - m_Path: rig/root/ORG-hips/ORG-spine/ORG-chest/ORG-neck/ORG-head/ORG-hair_4
    m_Weight: 1
  - m_Path: rig/root/ORG-hips/ORG-spine/ORG-chest/ORG-neck/ORG-head/ORG-hair_4/ORG-hair_4_001
    m_Weight: 1
  - m_Path: rig/root/ORG-hips/ORG-spine/ORG-chest/ORG-neck/ORG-head/ORG-hair_4/ORG-hair_4_001/ORG-hair_4_002
    m_Weight: 1
  - m_Path: rig/root/ORG-hips/ORG-spine/ORG-chest/ORG-neck/ORG-head/ORG-hair_4/ORG-hair_4_001/ORG-hair_4_002/ORG-hair_4_003
    m_Weight: 1
  - m_Path: rig/root/ORG-hips/ORG-spine/ORG-chest/ORG-shoulder_L
    m_Weight: 0
  - m_Path: rig/root/ORG-hips/ORG-spine/ORG-chest/ORG-shoulder_L/ORG-upper_arm_L
    m_Weight: 0
  - m_Path: rig/root/ORG-hips/ORG-spine/ORG-chest/ORG-shoulder_L/ORG-upper_arm_L/ORG-forearm_L
    m_Weight: 0
  - m_Path: rig/root/ORG-hips/ORG-spine/ORG-chest/ORG-shoulder_L/ORG-upper_arm_L/ORG-forearm_L/ORG-hand_L
    m_Weight: 0
  - m_Path: rig/root/ORG-hips/ORG-spine/ORG-chest/ORG-shoulder_L/ORG-upper_arm_L/ORG-forearm_L/ORG-hand_L/ORG-palm_01_L
    m_Weight: 0
  - m_Path: rig/root/ORG-hips/ORG-spine/ORG-chest/ORG-shoulder_L/ORG-upper_arm_L/ORG-forearm_L/ORG-hand_L/ORG-palm_01_L/ORG-f_index_01_L
    m_Weight: 0
  - m_Path: rig/root/ORG-hips/ORG-spine/ORG-chest/ORG-shoulder_L/ORG-upper_arm_L/ORG-forearm_L/ORG-hand_L/ORG-palm_01_L/ORG-f_index_01_L/ORG-f_index_02_L
    m_Weight: 0
  - m_Path: rig/root/ORG-hips/ORG-spine/ORG-chest/ORG-shoulder_L/ORG-upper_arm_L/ORG-forearm_L/ORG-hand_L/ORG-palm_01_L/ORG-f_index_01_L/ORG-f_index_02_L/ORG-f_index_03_L
    m_Weight: 0
  - m_Path: rig/root/ORG-hips/ORG-spine/ORG-chest/ORG-shoulder_L/ORG-upper_arm_L/ORG-forearm_L/ORG-hand_L/ORG-palm_01_L/ORG-thumb_01_L
    m_Weight: 0
  - m_Path: rig/root/ORG-hips/ORG-spine/ORG-chest/ORG-shoulder_L/ORG-upper_arm_L/ORG-forearm_L/ORG-hand_L/ORG-palm_01_L/ORG-thumb_01_L/ORG-thumb_02_L
    m_Weight: 0
  - m_Path: rig/root/ORG-hips/ORG-spine/ORG-chest/ORG-shoulder_L/ORG-upper_arm_L/ORG-forearm_L/ORG-hand_L/ORG-palm_01_L/ORG-thumb_01_L/ORG-thumb_02_L/ORG-thumb_03_L
    m_Weight: 0
  - m_Path: rig/root/ORG-hips/ORG-spine/ORG-chest/ORG-shoulder_L/ORG-upper_arm_L/ORG-forearm_L/ORG-hand_L/ORG-palm_02_L
    m_Weight: 0
  - m_Path: rig/root/ORG-hips/ORG-spine/ORG-chest/ORG-shoulder_L/ORG-upper_arm_L/ORG-forearm_L/ORG-hand_L/ORG-palm_02_L/ORG-f_middle_01_L
    m_Weight: 0
  - m_Path: rig/root/ORG-hips/ORG-spine/ORG-chest/ORG-shoulder_L/ORG-upper_arm_L/ORG-forearm_L/ORG-hand_L/ORG-palm_02_L/ORG-f_middle_01_L/ORG-f_middle_02_L
    m_Weight: 0
  - m_Path: rig/root/ORG-hips/ORG-spine/ORG-chest/ORG-shoulder_L/ORG-upper_arm_L/ORG-forearm_L/ORG-hand_L/ORG-palm_02_L/ORG-f_middle_01_L/ORG-f_middle_02_L/ORG-f_middle_03_L
    m_Weight: 0
  - m_Path: rig/root/ORG-hips/ORG-spine/ORG-chest/ORG-shoulder_L/ORG-upper_arm_L/ORG-forearm_L/ORG-hand_L/ORG-palm_03_L
    m_Weight: 0
  - m_Path: rig/root/ORG-hips/ORG-spine/ORG-chest/ORG-shoulder_L/ORG-upper_arm_L/ORG-forearm_L/ORG-hand_L/ORG-palm_03_L/ORG-f_ring_01_L
    m_Weight: 0
  - m_Path: rig/root/ORG-hips/ORG-spine/ORG-chest/ORG-shoulder_L/ORG-upper_arm_L/ORG-forearm_L/ORG-hand_L/ORG-palm_03_L/ORG-f_ring_01_L/ORG-f_ring_02_L
    m_Weight: 0
  - m_Path: rig/root/ORG-hips/ORG-spine/ORG-chest/ORG-shoulder_L/ORG-upper_arm_L/ORG-forearm_L/ORG-hand_L/ORG-palm_03_L/ORG-f_ring_01_L/ORG-f_ring_02_L/ORG-f_ring_03_L
    m_Weight: 0
  - m_Path: rig/root/ORG-hips/ORG-spine/ORG-chest/ORG-shoulder_L/ORG-upper_arm_L/ORG-forearm_L/ORG-hand_L/ORG-palm_04_L
    m_Weight: 0
  - m_Path: rig/root/ORG-hips/ORG-spine/ORG-chest/ORG-shoulder_L/ORG-upper_arm_L/ORG-forearm_L/ORG-hand_L/ORG-palm_04_L/ORG-f_pinky_01_L
    m_Weight: 0
  - m_Path: rig/root/ORG-hips/ORG-spine/ORG-chest/ORG-shoulder_L/ORG-upper_arm_L/ORG-forearm_L/ORG-hand_L/ORG-palm_04_L/ORG-f_pinky_01_L/ORG-f_pinky_02_L
    m_Weight: 0
  - m_Path: rig/root/ORG-hips/ORG-spine/ORG-chest/ORG-shoulder_L/ORG-upper_arm_L/ORG-forearm_L/ORG-hand_L/ORG-palm_04_L/ORG-f_pinky_01_L/ORG-f_pinky_02_L/ORG-f_pinky_03_L
    m_Weight: 0
  - m_Path: rig/root/ORG-hips/ORG-spine/ORG-chest/ORG-shoulder_R
    m_Weight: 0
  - m_Path: rig/root/ORG-hips/ORG-spine/ORG-chest/ORG-shoulder_R/ORG-upper_arm_R
    m_Weight: 0
  - m_Path: rig/root/ORG-hips/ORG-spine/ORG-chest/ORG-shoulder_R/ORG-upper_arm_R/ORG-forearm_R
    m_Weight: 0
  - m_Path: rig/root/ORG-hips/ORG-spine/ORG-chest/ORG-shoulder_R/ORG-upper_arm_R/ORG-forearm_R/ORG-hand_R
    m_Weight: 0
  - m_Path: rig/root/ORG-hips/ORG-spine/ORG-chest/ORG-shoulder_R/ORG-upper_arm_R/ORG-forearm_R/ORG-hand_R/ORG-palm_01_R
    m_Weight: 0
  - m_Path: rig/root/ORG-hips/ORG-spine/ORG-chest/ORG-shoulder_R/ORG-upper_arm_R/ORG-forearm_R/ORG-hand_R/ORG-palm_01_R/ORG-f_index_01_R
    m_Weight: 0
  - m_Path: rig/root/ORG-hips/ORG-spine/ORG-chest/ORG-shoulder_R/ORG-upper_arm_R/ORG-forearm_R/ORG-hand_R/ORG-palm_01_R/ORG-f_index_01_R/ORG-f_index_02_R
    m_Weight: 0
  - m_Path: rig/root/ORG-hips/ORG-spine/ORG-chest/ORG-shoulder_R/ORG-upper_arm_R/ORG-forearm_R/ORG-hand_R/ORG-palm_01_R/ORG-f_index_01_R/ORG-f_index_02_R/ORG-f_index_03_R
    m_Weight: 0
  - m_Path: rig/root/ORG-hips/ORG-spine/ORG-chest/ORG-shoulder_R/ORG-upper_arm_R/ORG-forearm_R/ORG-hand_R/ORG-palm_01_R/ORG-thumb_01_R
    m_Weight: 0
  - m_Path: rig/root/ORG-hips/ORG-spine/ORG-chest/ORG-shoulder_R/ORG-upper_arm_R/ORG-forearm_R/ORG-hand_R/ORG-palm_01_R/ORG-thumb_01_R/ORG-thumb_02_R
    m_Weight: 0
  - m_Path: rig/root/ORG-hips/ORG-spine/ORG-chest/ORG-shoulder_R/ORG-upper_arm_R/ORG-forearm_R/ORG-hand_R/ORG-palm_01_R/ORG-thumb_01_R/ORG-thumb_02_R/ORG-thumb_03_R
    m_Weight: 0
  - m_Path: rig/root/ORG-hips/ORG-spine/ORG-chest/ORG-shoulder_R/ORG-upper_arm_R/ORG-forearm_R/ORG-hand_R/ORG-palm_02_R
    m_Weight: 0
  - m_Path: rig/root/ORG-hips/ORG-spine/ORG-chest/ORG-shoulder_R/ORG-upper_arm_R/ORG-forearm_R/ORG-hand_R/ORG-palm_02_R/ORG-f_middle_01_R
    m_Weight: 0
  - m_Path: rig/root/ORG-hips/ORG-spine/ORG-chest/ORG-shoulder_R/ORG-upper_arm_R/ORG-forearm_R/ORG-hand_R/ORG-palm_02_R/ORG-f_middle_01_R/ORG-f_middle_02_R
    m_Weight: 0
  - m_Path: rig/root/ORG-hips/ORG-spine/ORG-chest/ORG-shoulder_R/ORG-upper_arm_R/ORG-forearm_R/ORG-hand_R/ORG-palm_02_R/ORG-f_middle_01_R/ORG-f_middle_02_R/ORG-f_middle_03_R
    m_Weight: 0
  - m_Path: rig/root/ORG-hips/ORG-spine/ORG-chest/ORG-shoulder_R/ORG-upper_arm_R/ORG-forearm_R/ORG-hand_R/ORG-palm_03_R
    m_Weight: 0
  - m_Path: rig/root/ORG-hips/ORG-spine/ORG-chest/ORG-shoulder_R/ORG-upper_arm_R/ORG-forearm_R/ORG-hand_R/ORG-palm_03_R/ORG-f_ring_01_R
    m_Weight: 0
  - m_Path: rig/root/ORG-hips/ORG-spine/ORG-chest/ORG-shoulder_R/ORG-upper_arm_R/ORG-forearm_R/ORG-hand_R/ORG-palm_03_R/ORG-f_ring_01_R/ORG-f_ring_02_R
    m_Weight: 0
  - m_Path: rig/root/ORG-hips/ORG-spine/ORG-chest/ORG-shoulder_R/ORG-upper_arm_R/ORG-forearm_R/ORG-hand_R/ORG-palm_03_R/ORG-f_ring_01_R/ORG-f_ring_02_R/ORG-f_ring_03_R
    m_Weight: 0
  - m_Path: rig/root/ORG-hips/ORG-spine/ORG-chest/ORG-shoulder_R/ORG-upper_arm_R/ORG-forearm_R/ORG-hand_R/ORG-palm_04_R
    m_Weight: 0
  - m_Path: rig/root/ORG-hips/ORG-spine/ORG-chest/ORG-shoulder_R/ORG-upper_arm_R/ORG-forearm_R/ORG-hand_R/ORG-palm_04_R/ORG-f_pinky_01_R
    m_Weight: 0
  - m_Path: rig/root/ORG-hips/ORG-spine/ORG-chest/ORG-shoulder_R/ORG-upper_arm_R/ORG-forearm_R/ORG-hand_R/ORG-palm_04_R/ORG-f_pinky_01_R/ORG-f_pinky_02_R
    m_Weight: 0
  - m_Path: rig/root/ORG-hips/ORG-spine/ORG-chest/ORG-shoulder_R/ORG-upper_arm_R/ORG-forearm_R/ORG-hand_R/ORG-palm_04_R/ORG-f_pinky_01_R/ORG-f_pinky_02_R/ORG-f_pinky_03_R
    m_Weight: 0
  - m_Path: rig/root/ORG-hips/ORG-thigh_L
    m_Weight: 0
  - m_Path: rig/root/ORG-hips/ORG-thigh_L/ORG-shin_L
    m_Weight: 0
  - m_Path: rig/root/ORG-hips/ORG-thigh_L/ORG-shin_L/ORG-foot_L
    m_Weight: 0
  - m_Path: rig/root/ORG-hips/ORG-thigh_L/ORG-shin_L/ORG-foot_L/ORG-toe_L
    m_Weight: 0
  - m_Path: rig/root/ORG-hips/ORG-thigh_L/ORG-shin_L/ORG-heel_L
    m_Weight: 0
  - m_Path: rig/root/ORG-hips/ORG-thigh_L/ORG-shin_L/ORG-heel_L/ORG-heel_02_L
    m_Weight: 0
  - m_Path: rig/root/ORG-hips/ORG-thigh_R
    m_Weight: 0
  - m_Path: rig/root/ORG-hips/ORG-thigh_R/ORG-shin_R
    m_Weight: 0
  - m_Path: rig/root/ORG-hips/ORG-thigh_R/ORG-shin_R/ORG-foot_R
    m_Weight: 0
  - m_Path: rig/root/ORG-hips/ORG-thigh_R/ORG-shin_R/ORG-foot_R/ORG-toe_R
    m_Weight: 0
  - m_Path: rig/root/ORG-hips/ORG-thigh_R/ORG-shin_R/ORG-heel_R
    m_Weight: 0
  - m_Path: rig/root/ORG-hips/ORG-thigh_R/ORG-shin_R/ORG-heel_R/ORG-heel_02_R
    m_Weight: 0
